{
  "file_generated_by": "FlutterFire CLI",
  "purpose": "FirebaseAppID & ProjectID for this Firebase app in this directory",
  "GOOGLE_APP_ID": "1:471993975704:ios:94a256a90f38906a0161ed",
  "FIREBASE_PROJECT_ID": "printideas3d-d544f",
  "GCM_SENDER_ID": "471993975704"
}